[
  {
    "id": 1,
    "title": "O Amor é paciente",
    "description": "A primeira a parte do desafio de hoje é bastante simples. Apesar do amor se comunicar de várias formas, as palavras, na maioria das vezes, refletem o estado do nosso coração. Para o próximo dia, decida demonstrar paciência e de modo algum diga algo negativo para o seu cônjuge. Se a tentação surgir, não diga nada. É melhor segurar a língua do que dizer algo de que possa se arrepender depois. ",
    "question": "Aconteceu alguma coisa hoje que lhe deixou com raiva do seu cônjuge? Você foi tentado a ter pensamentos condenáveis e a expressá-los com palavras? "
  },
  {
    "id": 2,
    "title": "0 Amor é bondoso",
    "description": "Além de, mais uma vez, não dizer palavras negativas ao seu cônjuge hoje, demonstre bondade com, no mínimo, um gesto inesperado. ",
    "question": "Que descobertas sobre o amor você fez hoje? O que você fez especificamente com relação a este desafio? Como você demonstrou bondade?  "
  },
  {
    "id": 3,
    "title": "O Amor não é egoísta",
    "description": "É difícil se importar com algo em que você não está investindo. Além de evitar comentários negativos, compre para o seu cônjuge alguma coisa que diga: eu estava pensando em você hoje. ",
    "question": "O que você escolheu dar ao seu cônjuge? O que aconteceu quando você entregou o presente? "
  },
  {
    "id": 4,
    "title": "O Amor é atencioso",
    "description": "Faça contato com o seu cônjuge em algum momento durante a agitação do dia. Não faça outra coisa senão perguntar como ele está e se tem algo que você pode fazer por ele.  ",
    "question": "O que você aprendeu sobre si mesmo e sobre o seu cônjuge ao aceitar o desafio de hoje? Como isso poderia se tornar mais natural, rotineiro e parte verdadeiramente útil do seu estilo de vida? "
  },
  {
    "id": 5,
    "title": "O Amor não maltrata",
    "description": "Peça ao seu cônjuge para lhe dizer três coisas sobre você que o deixam desconfortável e irritado. Faça isso sem atacá-lo e sem justificar seu comportamento. Preocupe-se apenas com a perspectiva dele. ",
    "question": "Quais foram as três coisas que o seu cônjuge disse sobre você que precisam da sua atenção? Como você reagiu ao ouvi-las? O que você pretende fazer para melhorar essas áreas?   "
  },
  {
    "id": 6,
    "title": "O Amor não se irrita facilmente",
    "description": "Escolha hoje para reagir de maneira amorosa, apesar das circunstâncias do seu casamento. Comece fazendo uma lista das áreas em que você precisa separar um tempo para respirar. Então, faça uma lista das motivações negativas e abra mão delas.  ",
    "question": "Em que áreas da sua vida você precisa estabelecer limites? Quando foi a última vez que reagiu de forma exagerada? Qual foi a motivação real por trás disso? Quais foram as decisões que você tomou hoje? "
  },
  {
    "id": 7,
    "title": "O Amor acredita sempre no melhor",
    "description": "Para o desafio de hoje, pegue duas folhas de papel. Na primeira, passe alguns minutos escrevendo coisas positivas a respeito do seu cônjuge. Depois, na segunda folha, faça o mesmo com as coisas negativas. Coloque as duas folhas em um lugar secreto para o próximo dia. Existe um propósito e um planodiferente para cada uma dessas listas. Em algum ponto durante o resto do dia, escolha um atributo positivo e agradeça ao seu cônjuge por ter essa característica. ",
    "question": "Qual lista foi a mais fácil de fazer? O que essa atitude revelou sobre os seus pensamentos? Por qual atributo você agradeceu ao seu cônjuge? "
  },
  {
    "id": 8,
    "title": "O Amor não arde em ciúmes",
    "description": "Decida ser o maior fã do seu cônjuge, e decida rejeitar qualquer pensamento invejoso. Para ajudá-lo a manter o coração em seu cônjuge e a focar nas conquistas dele, pegue a lista de atributos negativos que você fez ontem e, discretamente, queime-a. Depois, compartilhe com seu cônjuge o quanto você está feliz com o sucesso que ele conquistou recentemente. ",
    "question": "Foi difícil queimar a lista? Quais são os aspectos positivos na vida de seu cônjuge que deixam você feliz? Como você pode encorajá-lo a obter sucessos futuros?  "
  },
  {
    "id": 9,
    "title": "O Amor deixa boas impressões",
    "description": "Pense em uma maneira especial de cumprimentar o seu cônjuge hoje. Faça isso com um sorriso e com entusiasmo. Então, decida mudar a maneira como o cumprimenta de modo que reflita o seu amor por ele.  ",
    "question": "Quando e onde você escolheu fazer o seu cumprimento especial? Como você vai mudar o modo como cumprimenta seu cônjuge a partir de hoje? "
  },
  {
    "id": 10,
    "title": "O Amor é incondicional",
    "description": "Faça algo fora do normal para o seu cônjuge - algo que prove (para você e para ele) que o seu amor é baseado em suas escolhas e em nada mais. Lave o carro dela. Limpe a cozinha. Compre a sobremesa favorita dele. Dobre as roupas lavadas. Demonstre amor pela simples alegria de serem parceiros no casamento.   ",
    "question": "Seu amor era baseado nos atributos e comportamentos do seu cônjuge, ou em seu compromisso? Como você pode continuar demonstrando amor quando ele não retoma da maneira como você espera? "
  },
  {
    "id": 11,
    "title": "O Amor cuida",
    "description": "Quais as necessidades da sua esposa ou do seu marido hoje podem ser supridas por você hoje? Você pode adiar uma viagem de negócios? Fazer uma massagem nas costas ou no pé dela)? Tem algum trabalho doméstico onde possa ajudar? Escolha um gesto hoje diga, eu cuido de você e faça isso com um sorriso.  ",
    "question": "O que você escolheu fazer para mostrar que cuida do seu cônjuge? O que você aprendeu com essa experiência?  "
  },
  {
    "id": 12,
    "title": "O Amor deixa o outro vencer",
    "description": "Demonstre amor através da disposição, escolhendo ceder em uma área de desacordo entre você e seu cônjuge. Diga a ele que você está colocando a preferência dele em primeiro lugar. ",
    "question": "Do que você decidiu abrir mão hoje? O que isso lhe custou? Como isso irá lhe ajudar no futuro? "
  },
  {
    "id": 13,
    "title": "O Amor é justo",
    "description": "Converse com o seu cônjuge e estabeleça regras saudáveis de conflito. Se o seu cônjuge não estiver pronto para isso, então escreva os seus limites pessoais para a briga. Decida colocá-los em prática quando o próximo desentendimento ocorrer  ",
    "question": "Se o seu cônjuge participou com você, qual foi a reação dele? Que regras você escreveu para si mesmo? "
  },
  {
    "id": 14,
    "title": "O Amor sente prazer",
    "description": "Propositadamente, negligencie uma atividade que normalmente faria. Para gastar um tempo de qualidade com o seu cônjuge. Faça algo que ele amaria fazer, ou um projeto que ele gostaria muito de realizar. Apenas estejam juntos. ",
    "question": "Do que você decidiu abrir mão? O que vocês fizeram juntos? Como foi que aconteceu? Que novas coisas você aprendeu (ou reaprendeu) a respeito do seu cônjuge? "
  },
  {
    "id": 15,
    "title": "O Amor é nobre",
    "description": "Escolha uma maneira de demonstrar honra e respeito ao seu cônjuge que vá além da sua rotina. Pode ser abrir a porta para ela. Pode ser separar as roupas que ele irá vestir. Pode ser a forma como você ouve e fala com ele. Mostre ao seu cônjuge que ele é altamente honrado aos seus olhos.  ",
    "question": "Como você escolheu dar honra ao seu cônjuge? Quais foram os resultados? Que outras maneiras de demonstrar honra você pode utilizar nos próximos dias? "
  },
  {
    "id": 16,
    "title": "O Amor intercede",
    "description": "Comece hoje orando pelo coração do seu cônjuge. ore por três áreas. Específicas da vida dele onde você deseja que Deus trabalhe. Ore por seu casamento. ",
    "question": "Você já experimentou o poder da oração? Pelo que você escolheu orar? Isso foi fácil ou lhe pareceu estranho?   "
  },
  {
    "id": 17,
    "title": "O Amor traz intimidade",
    "description": "Decida guardar os segredos do seu cônjuge (a menos que seja perigoso para ele ou para você) e orar por ele. Fale com seu cônjuge e demonstre amor apesar desses segredos. Ouça-o quando ele compartilha com você seus pensamentos mais secretos e suas lutas. Faça com que ele se sinta seguro. ",
    "question": "Quão difícil é para você se conter em fazer uma crítica ou algo parecido? O que você aprendeu sobre o seu cônjuge hoje, simplesmente por ouvir?"
  },
  {
    "id": 18,
    "title": "O Amor busca entender",
    "description": "Prepare um jantar especial em casa só para vocês dois. O jantar pode ser tão agradável quanto você preferir. Separe este momento para conhecer seu cônjuge melhor, talvez em áreas que vocês raramente conversam. Decida fazer desta uma noite agradável para você e para o seu amor.",
    "question": "O que você descobriu sobre o seu cônjuge? Como você pode continuar esse processo de descoberta, de outras maneiras? Quais foram alguns dos momentos que tornaram essa noite memorável?"
  },
  {
    "id": 19,
    "title": "É impossível Amar?",
    "description": "Olhe os desafios dos dias anteriores. Existe algum que parecia impossível para você? Você percebeu que precisa de Deus para mudar seu coração e lhe dar capacidade para amar? Peça a Ele para mostrar onde você precisa da intervenção Dele, e peça força e graça para cumprir o seu destino eterno.",
    "question": "Existe alguma agitação em seu coração? Que atitude você tomou em resposta a Ele? "
  },
  {
    "id": 20,
    "title": "Jesus Cristo é amor",
    "description": "Desafio você a conhecer a Deus pela palavra. Desafio você a crer em Jesus como seu salvador. desafio você a orar, Senhor Jesus, sou pecador, mas o senhor mostrou o teu amor por mim morrendo para perdoar os meus pecados, e o senhor provou o teu poder de me salvar da morte através da ressurreição. Senhor, mude o meu coração, e salve-me pela tua graça. ",
    "question": "Escreva como foi essa experiência para você. Mesmo se você estiver apenas renovando o compromisso de receber e expressar Seu amor, o que Ele lhe mostrou hoje? "
  },
  {
    "id": 21,
    "title": "O Amor é saciado em Deus",
    "description": "Separe hoje um tempo para orar e ler a bíblia. Tente ler um capítulo de provérbios a cada dia (são trinta e um - um suprimento para o mês todo), ou leia um capítulo dos evangelhos (Mateus, Marcos, Lucas e João). Enquanto você faz isso, mergulhe no amor e nas promessas que Deus tem para você. Isso lhe proporcionará crescimento na sua caminhada com Ele.",
    "question": "Como você acha que passar tempo com Deus mudará sua situação e sua perspectiva? Como você pode fazer d’Ele a parte mais significativa do seu dia? "
  },
  {
    "id": 22,
    "title": "O Amor é fiel",
    "description": "Amar é uma escolha. Não um sentimento. É uma ação inicial não uma ação automática. Hoje, escolha estar comprometido a amar mesmo que seu cônjuge tenha perdido o interesse em receber o seu amor diga a ele hoje em palavras semelhantes a essas, eu amo você e ponto final. Eu escolho amar você mesmo se você não me amar em troca. ",
    "question": "Por que esse tipo de amor é impossível sem o amor de Cristo batendo em seu coração? Como a presença de Deus em você lhe capacita a amar, mesmo quando não é, inicialmente, recíproco? "
  },
  {
    "id": 23,
    "title": "O Amor sempre protege",
    "description": "Remova qualquer coisa que esteja atrapalhando seu relacionamento, qualquer vício ou influência que esteja se infiltrando em seu amor e afastando seu coração do seu cônjuge. ",
    "question": "O que você jogou fora primeiro? Existem outras coisas que precisam ser eliminadas também? O que você espera como resultado dessa remoção em você, em seu casamento e em seu relacionamento com Deus?"
  },
  {
    "id": 24,
    "title": "Amor vs. cobiça",
    "description": "Acabe com a cobiça agora. Identifique todo objeto dela em sua vida e remova-o. Rejeite todas as mentiras em que você acreditava ter prazer. A cobiça não pode terá permissão de ficar por perto. Ela deve ser destruída e exterminada - hoje - e substituída pelas promessas de deus e por um coração cheio do seu perfeito amor.",
    "question": "O que você identificou como uma área de cobiça? O que ela lhe custou ao longo do tempo? Como ela lhe afastou de ser a pessoa que gostaria? Escreva sobre seu novo compromisso de buscar a Deus - e de buscar seu cônjuge - em lugar de procurar desejos tolos. "
  },
  {
    "id": 25,
    "title": "O Amor perdoa",
    "description": "Seja o que for que você ainda não perdoou em seu cônjuge, perdoe hoje. Esqueça. Assim como pedimos a Deus para perdoaras nossas dívidas a cada dia, devemos pedira deus para ajudar-nos a perdoar os nossos devedores a cada dia também. a falta de perdão tem mantido você e seu cônjuge na prisão por muito tempo. Diga de coração, eu escolhi perdoar.",
    "question": "O que você perdoou em seu cônjuge hoje? Por quanto tempo você está carregando esse peso? Quais foram os resultados de entregar esse problema a Deus? "
  },
  {
    "id": 26,
    "title": "O Amor é responsável",
    "description": "Separe um tempo para orar pelas áreas onde você tem errado. Peça o perdão de Deus, então, humilhe-se a ponto de admiti-los ao seu cônjuge. Faça isso sinceramente e verdadeiramente. Peça perdão a seu cônjuge também. Não importa como ele irá responder, certifique-se de ter assumido sua responsabilidade em amor. Mesmo se ele responder com uma crítica, aceite-a como um conselho.",
    "question": "O que o seu cônjuge precisa ver para acreditar que sua confissão foi mais do que palavras?"
  },
  {
    "id": 27,
    "title": "O Amor encoraja",
    "description": "Elimine do seu lar o veneno das expectativas erradas. Pense em uma área onde seu cônjuge tenha dito que você está esperando muito, e diga a ele que você está arrependido por ter exigido muito dele. Prometa que você procurará entendê-lo, e o assegure de seu amor incondicional ",
    "question": "O que você descobre a seu respeito quando coloca em seu cônjuge altas expectativas que ele não está internamente motivado a atingir? Quais são as melhores maneiras de lidar com essas divergências?"
  },
  {
    "id": 28,
    "title": "O Amor se sacrifica",
    "description": "Qual é a maior necessidade do seu cônjuge nesse momento? Existe alguma necessidade que você pode suprir hoje através de um ato corajoso de sacrifício da sua parte? Independente da necessidade, ser grande ou pequena. Proponha-se a fazer o que você puder para suprira necessidade. ",
    "question": "Quanto do estresse do seu cônjuge é causado por sua falta de iniciativa ou preocupação? Quando você expressou o desejo de ajudar, como ele recebeu sua atitude? Existem outras necessidades que você pode suprir? "
  },
  {
    "id": 29,
    "title": "A motivação do Amor",
    "description": "Antes de ver seu cônjuge hoje. Ore por ele e por suas necessidades. Diga eu te amo sendo fácil para você ou não. Então expresse amor de maneira sensível. Volte a deus em oração mais uma vez. Agradecendo a ele por ter lhe dado o privilégio de amar essa pessoa tão especial - incondicionalmente. Assim como ele ama vocês dois.",
    "question": "Como essa mudança de motivação afeta seu relacionamento e suas motivações? O que isso lhe inspira afazer? O que isso lhe inspira a deixar de fazer? "
  },
  {
    "id": 30,
    "title": "O Amor traz unidade",
    "description": "Separe uma área que cause divisão em seu casamento e olhe para ela hoje como uma oportunidade única de orar. Peça deus para revelar o que há no seu ração que está ameaçando sua unidade com seu cônjuge. Ore para que deus faça o mesmo com ele. E se for apropriado, discuta abertamente esse problema, buscando de deus a unidade.",
    "question": "Deus abriu seus olhos para as coisas que podem estar criando um ponto de discórdia? Como você pretende reagir? O que você espera que Deus faça em seu cônjuge também? "
  },
  {
    "id": 31,
    "title": "O Amor e o casamento",
    "description": "Existe algum rompimento que você ainda não teve coragem de realizar? Confesse-o ao seu cônjuge hoje, e decida agir corretamente. A unidade do seu casamento depende disso. Siga a unidade com o compromisso com seu cônjuge e com deus de fazer do seu casamento o relacionamento humano mais importante da sua vida ",
    "question": "Este tem sido um assunto difícil para você? Como isso tem afetado o seu relacionamento? Se o maior ofensor desta área é o seu cônjuge (com seus sogros), como você pode, amorosamente, transformar esse caso em uma situação melhor?"
  },
  {
    "id": 32,
    "title": "O Amor satisfaz as necessidades sexuais",
    "description": "Se possível, relacione-se sexualmente com o seu marido ou com sua esposa hoje. Faça isso de maneira que honre o que seu cônjuge lhe disse (ou deixou implícito) a respeito das necessidades dele em relação à sexualidade. Peça a Deus para que esse momento seja agradável para os dois e para que também seja um caminho para uma intimidade cada vez maior",
    "question": "Essa foi uma experiência satisfatória para você? Se não aconteceu da maneira como você esperava, o que você acha que está dificultando a situação? Você já se comprometeu em levar isso a Deus em oração? Se foi bênção para os dois, o que você pode aprender com isto para o futuro? "
  },
  {
    "id": 33,
    "title": "O Amor completa um ao outro",
    "description": "Seu cônjuge é essencial para um futuro de sucesso. Faça-o saber hoje que você deseja incluí-lo em suas próximas decisões, e que você precisa do seu conselho e ponto de vista. Se você ignorou as idéias dele no passado, admita seu descuido e peça-o para perdoá-lo.",
    "question": "Quais decisões futuras vocês podem tomar juntos? O que você aprendeu hoje a respeito do papel do seu cônjuge?"
  },
  {
    "id": 34,
    "title": "O Amor celebra a Deus",
    "description": "Encontre um exemplo específico e recente de quando seu cônjuge demonstrou o caráter cristão de forma notável. Elogie-o verbalmente por isto em algum momento do dia.",
    "question": "Qual o exemplo que você escolheu reconhecer? De que outras formas você pode celebrar o crescimento dele em Deus? Como você pode encorajá-lo a perseverar nisso?"
  },
  {
    "id": 35,
    "title": "O Amor presta contas",
    "description": "Busque um conselheiro para casais - alguém que seja um cristão firme e que será honesto e amoroso. Se você sente que o aconselhamento é necessário, então dê o primeiro passo para marcar o primeiro encontro. Durante esse processo, peça a deus para direcionar suas decisões e discernimento.",
    "question": "Quem você escolheu? Por que você elegeu esta pessoa? O que você espera aprender com ela?"
  },
  {
    "id": 36,
    "title": "O Amor é a palavra de Deus",
    "description": "Tenha o compromisso de ler a Bíblia todos os dias. Encontre um livro devocional ou outra fonte que lhe servirá como guia. Se seu cônjuge está aberto a isto, veja se ele se comprometerá a ler a Bíblia diariamente com você. Inicie submetendo cada área da sua vida à direção da palavra de Deus e comece a construir a sua vida e seu casamento na rocha. ",
    "question": "Qual a área da sua vida que mais precisa do conselho de Deus: Onde você sente que é mais suscetível a falhar? O que você está pedindo para Deus lhe mostrar através da Sua Palavra? "
  },
  {
    "id": 37,
    "title": "O Amor concorda em Oração",
    "description": "Pergunte ao seu cônjuge se vocês podem começara orar juntos. Conversem sobre a melhor hora para fazer isso, seja pela manha na hora do almoço ou antes de dormir. Utilize este tempo para colocar suas preocupações, discórdias e necessidades diante do senhor. Não esqueçade agradecê-lo pela provisão e pelas bênçãos. Mesmo se o seu cônjuge se recusara fazer isso, decida ter esse tempo de oração diariamente ainda que sozinho. ",
    "question": "O que você pode fazer para que o seu marido ou a Sua esposa esteja disposto (a) a orar junto com você? Se vocês concordaram em orar juntos, como foi? O que você aprendeu com isso?"
  },
  {
    "id": 38,
    "title": "O Amor realiza sonhos",
    "description": "Pergunte a si mesmo o que o seu cônjuge iria querer se fosse possível de obter. Leve isso em oração e comece a mapear um plano para atender a alguns ('se não todos) desses? Desejos, em todos os níveis possíveis.",
    "question": "O que tem lhe deixado resistente a realizar os desejos que seu cônjuge sempre teve? Se ele soubesse que os sonhos dele são prioridade para você, como seu casamento seria mudado? Quais os desejos que você está tentando realizar?"
  },
  {
    "id": 39,
    "title": "O Amor permanece",
    "description": "Passe um tempo orando individualmente, então escreva uma carta de comprometimento ao seu cônjuge. Inclua a razão pela qual está se comprometendo com este casamento até a morte e que decidiu amá-lo não importam as razões. Deixe-a em um lugar onde o seu cônjuge possa encontrá-la. ",
    "question": "Quais foram as hesitações que você teve ao escrever esta carta? Como você espera que o seu cônjuge responda a ela? Como Deus lhe ajudou aescrevê-la e o que este processo lhe ensinou sobre você mesmo?"
  },
  {
    "id": 40,
    "title": "O Amor é uma aliança",
    "description": "Escreva novas promessas assim como você fez no dia do seu casamento. Guarde-as em algum lugar da sua casa. Talvez, se for apropriado, você pode renovar essas promessas formalmente diante de um ministro e com a família presente. Faça dessas promessas um testamento vivo do valor do casamento aos olhos de deus e da grande honra de ser um com seu cônjuge.",
    "question": "O que Deus lhe revelou durante a jornada de O Desafio de Amar? Como a sua visão de casamento mudou? Qual o seu nível de comprometimento com Deus e com o seu cônjuge? Com quem você pode compartilhar isso como testemunho? "
  }
]